%YAML 1.1
%TAG !u! tag:unity3d.com,2011:
--- !u!74 &7400000
AnimationClip:
  m_ObjectHideFlags: 0
  m_CorrespondingSourceObject: {fileID: 0}
  m_PrefabInstance: {fileID: 0}
  m_PrefabAsset: {fileID: 0}
  m_Name: MacArthur_Minigun
  serializedVersion: 6
  m_Legacy: 0
  m_Compressed: 0
  m_UseHighQualityCurve: 1
  m_RotationCurves: []
  m_CompressedRotationCurves: []
  m_EulerCurves: []
  m_PositionCurves: []
  m_ScaleCurves: []
  m_FloatCurves: []
  m_PPtrCurves:
  - curve:
    - time: 0
      value: {fileID: 1567609969, guid: a3e2947735543d549b3f1ca6180c9d16, type: 3}
    - time: 0.083333336
      value: {fileID: -1847866835, guid: a3e2947735543d549b3f1ca6180c9d16, type: 3}
    - time: 0.16666667
      value: {fileID: -1234207928, guid: a3e2947735543d549b3f1ca6180c9d16, type: 3}
    - time: 0.25
      value: {fileID: 86355817, guid: a3e2947735543d549b3f1ca6180c9d16, type: 3}
    - time: 0.33333334
      value: {fileID: 933917546, guid: a3e2947735543d549b3f1ca6180c9d16, type: 3}
    - time: 0.41666666
      value: {fileID: -252540163, guid: a3e2947735543d549b3f1ca6180c9d16, type: 3}
    - time: 0.5
      value: {fileID: -1311750771, guid: a3e2947735543d549b3f1ca6180c9d16, type: 3}
    - time: 0.5833333
      value: {fileID: -338730680, guid: a3e2947735543d549b3f1ca6180c9d16, type: 3}
    - time: 0.6666667
      value: {fileID: -89657077, guid: a3e2947735543d549b3f1ca6180c9d16, type: 3}
    - time: 0.75
      value: {fileID: 1567609969, guid: a3e2947735543d549b3f1ca6180c9d16, type: 3}
    - time: 0.8333333
      value: {fileID: -1847866835, guid: a3e2947735543d549b3f1ca6180c9d16, type: 3}
    - time: 0.9166667
      value: {fileID: -1234207928, guid: a3e2947735543d549b3f1ca6180c9d16, type: 3}
    - time: 1
      value: {fileID: 86355817, guid: a3e2947735543d549b3f1ca6180c9d16, type: 3}
    - time: 1.0833334
      value: {fileID: 933917546, guid: a3e2947735543d549b3f1ca6180c9d16, type: 3}
    - time: 1.1666666
      value: {fileID: -252540163, guid: a3e2947735543d549b3f1ca6180c9d16, type: 3}
    - time: 1.25
      value: {fileID: -1311750771, guid: a3e2947735543d549b3f1ca6180c9d16, type: 3}
    - time: 1.3333334
      value: {fileID: -338730680, guid: a3e2947735543d549b3f1ca6180c9d16, type: 3}
    - time: 1.4166666
      value: {fileID: -89657077, guid: a3e2947735543d549b3f1ca6180c9d16, type: 3}
    attribute: m_Sprite
    path: 
    classID: 212
    script: {fileID: 0}
  m_SampleRate: 12
  m_WrapMode: 0
  m_Bounds:
    m_Center: {x: 0, y: 0, z: 0}
    m_Extent: {x: 0, y: 0, z: 0}
  m_ClipBindingConstant:
    genericBindings:
    - serializedVersion: 2
      path: 0
      attribute: 0
      script: {fileID: 0}
      typeID: 212
      customType: 23
      isPPtrCurve: 1
    pptrCurveMapping:
    - {fileID: 1567609969, guid: a3e2947735543d549b3f1ca6180c9d16, type: 3}
    - {fileID: -1847866835, guid: a3e2947735543d549b3f1ca6180c9d16, type: 3}
    - {fileID: -1234207928, guid: a3e2947735543d549b3f1ca6180c9d16, type: 3}
    - {fileID: 86355817, guid: a3e2947735543d549b3f1ca6180c9d16, type: 3}
    - {fileID: 933917546, guid: a3e2947735543d549b3f1ca6180c9d16, type: 3}
    - {fileID: -252540163, guid: a3e2947735543d549b3f1ca6180c9d16, type: 3}
    - {fileID: -1311750771, guid: a3e2947735543d549b3f1ca6180c9d16, type: 3}
    - {fileID: -338730680, guid: a3e2947735543d549b3f1ca6180c9d16, type: 3}
    - {fileID: -89657077, guid: a3e2947735543d549b3f1ca6180c9d16, type: 3}
    - {fileID: 1567609969, guid: a3e2947735543d549b3f1ca6180c9d16, type: 3}
    - {fileID: -1847866835, guid: a3e2947735543d549b3f1ca6180c9d16, type: 3}
    - {fileID: -1234207928, guid: a3e2947735543d549b3f1ca6180c9d16, type: 3}
    - {fileID: 86355817, guid: a3e2947735543d549b3f1ca6180c9d16, type: 3}
    - {fileID: 933917546, guid: a3e2947735543d549b3f1ca6180c9d16, type: 3}
    - {fileID: -252540163, guid: a3e2947735543d549b3f1ca6180c9d16, type: 3}
    - {fileID: -1311750771, guid: a3e2947735543d549b3f1ca6180c9d16, type: 3}
    - {fileID: -338730680, guid: a3e2947735543d549b3f1ca6180c9d16, type: 3}
    - {fileID: -89657077, guid: a3e2947735543d549b3f1ca6180c9d16, type: 3}
  m_AnimationClipSettings:
    serializedVersion: 2
    m_AdditiveReferencePoseClip: {fileID: 0}
    m_AdditiveReferencePoseTime: 0
    m_StartTime: 0
    m_StopTime: 1.5
    m_OrientationOffsetY: 0
    m_Level: 0
    m_CycleOffset: 0
    m_HasAdditiveReferencePose: 0
    m_LoopTime: 0
    m_LoopBlend: 0
    m_LoopBlendOrientation: 0
    m_LoopBlendPositionY: 0
    m_LoopBlendPositionXZ: 0
    m_KeepOriginalOrientation: 0
    m_KeepOriginalPositionY: 1
    m_KeepOriginalPositionXZ: 0
    m_HeightFromFeet: 0
    m_Mirror: 0
  m_EditorCurves: []
  m_EulerEditorCurves: []
  m_HasGenericRootTransform: 0
  m_HasMotionFloatCurves: 0
  m_Events:
  - time: 0.41666666
    functionName: SpawnMinigun
    data: 
    objectReferenceParameter: {fileID: 0}
    floatParameter: 0
    intParameter: 0
    messageOptions: 0
  - time: 0.5
    functionName: SpawnMinigun
    data: 
    objectReferenceParameter: {fileID: 0}
    floatParameter: 0
    intParameter: 0
    messageOptions: 0
  - time: 0.5833333
    functionName: SpawnMinigun
    data: 
    objectReferenceParameter: {fileID: 0}
    floatParameter: 0
    intParameter: 0
    messageOptions: 0
  - time: 0.6666667
    functionName: SpawnMinigun
    data: 
    objectReferenceParameter: {fileID: 0}
    floatParameter: 0
    intParameter: 0
    messageOptions: 0
  - time: 1
    functionName: SpawnMinigun
    data: 
    objectReferenceParameter: {fileID: 0}
    floatParameter: 0
    intParameter: 0
    messageOptions: 0
  - time: 1.0833334
    functionName: SpawnMinigun
    data: 
    objectReferenceParameter: {fileID: 0}
    floatParameter: 0
    intParameter: 0
    messageOptions: 0
  - time: 1.1666666
    functionName: SpawnMinigun
    data: 
    objectReferenceParameter: {fileID: 0}
    floatParameter: 0
    intParameter: 0
    messageOptions: 0
  - time: 1.25
    functionName: SpawnMinigun
    data: 
    objectReferenceParameter: {fileID: 0}
    floatParameter: 0
    intParameter: 0
    messageOptions: 0
